%YAML 1.1
%TAG !u! tag:unity3d.com,2011:
--- !u!114 &11400000
MonoBehaviour:
  m_ObjectHideFlags: 0
  m_CorrespondingSourceObject: {fileID: 0}
  m_PrefabInstance: {fileID: 0}
  m_PrefabAsset: {fileID: 0}
  m_GameObject: {fileID: 0}
  m_Enabled: 1
  m_EditorHideFlags: 0
  m_Script: {fileID: 11500000, guid: c0bf73f6c00a1f849b095d107091f622, type: 3}
  m_Name: Notebook
  m_EditorClassIdentifier: 
  name: Notebook
  icon: {fileID: 21300000, guid: 83eaea5bba44437488e450245350a6b6, type: 3}
  pages:
  - {fileID: 11400000, guid: 257f69156c4f74a4bbf8ad46a139d7b9, type: 2}
