%YAML 1.1
%TAG !u! tag:unity3d.com,2011:
--- !u!114 &11400000
MonoBehaviour:
  m_ObjectHideFlags: 0
  m_CorrespondingSourceObject: {fileID: 0}
  m_PrefabInstance: {fileID: 0}
  m_PrefabAsset: {fileID: 0}
  m_GameObject: {fileID: 0}
  m_Enabled: 1
  m_EditorHideFlags: 0
  m_Script: {fileID: 11500000, guid: c0bf73f6c00a1f849b095d107091f622, type: 3}
  m_Name: JamesJournal
  m_EditorClassIdentifier: 
  name: JamesJournal
  icon: {fileID: 21300000, guid: 558e2f788c8cb2e4da7e9f220723d8a6, type: 3}
  pages:
  - {fileID: 11400000, guid: 799348715214ba14d8e010517b3b731d, type: 2}
  - {fileID: 11400000, guid: f341f9aafe774034db915bbb5c102aeb, type: 2}
  - {fileID: 11400000, guid: ec945cf75a40d214296ef642a9b5f445, type: 2}
  - {fileID: 11400000, guid: f579c1a73f751a14ca68ea4ab269d618, type: 2}
