%YAML 1.1
%TAG !u! tag:unity3d.com,2011:
--- !u!114 &11400000
MonoBehaviour:
  m_ObjectHideFlags: 0
  m_CorrespondingSourceObject: {fileID: 0}
  m_PrefabInstance: {fileID: 0}
  m_PrefabAsset: {fileID: 0}
  m_GameObject: {fileID: 0}
  m_Enabled: 1
  m_EditorHideFlags: 0
  m_Script: {fileID: 11500000, guid: 45254b1fb8b3cc340be83a06ffd322ce, type: 3}
  m_Name: Page2
  m_EditorClassIdentifier: 
  label: label2
  number: 1
  text: 'aaaaa

    aaa

    aa

    aa

    aa

    a

    a

    a

    a

    a

    a

'
