%YAML 1.1
%TAG !u! tag:unity3d.com,2011:
--- !u!114 &11400000
MonoBehaviour:
  m_ObjectHideFlags: 0
  m_CorrespondingSourceObject: {fileID: 0}
  m_PrefabInstance: {fileID: 0}
  m_PrefabAsset: {fileID: 0}
  m_GameObject: {fileID: 0}
  m_Enabled: 1
  m_EditorHideFlags: 0
  m_Script: {fileID: 11500000, guid: 10a61b212ffd21d458c6f1854851d6e2, type: 3}
  m_Name: Dynamite
  m_EditorClassIdentifier: 
  name: Dynamite
  description: Highly explosive dynamite stick. I shouldn't play around with this
    thing. Might be useful somwhere around here.
  icon: {fileID: 21300000, guid: 82c992910eddf28448834df8fe710328, type: 3}
  gameObjectClone: {fileID: 8622161390684429148, guid: e8c166c5845937747b72682dfa7a6f52,
    type: 3}
  examinedScale: 20
