%YAML 1.1
%TAG !u! tag:unity3d.com,2011:
--- !u!114 &11400000
MonoBehaviour:
  m_ObjectHideFlags: 0
  m_CorrespondingSourceObject: {fileID: 0}
  m_PrefabInstance: {fileID: 0}
  m_PrefabAsset: {fileID: 0}
  m_GameObject: {fileID: 0}
  m_Enabled: 1
  m_EditorHideFlags: 0
  m_Script: {fileID: 11500000, guid: 45254b1fb8b3cc340be83a06ffd322ce, type: 3}
  m_Name: CampCodePage
  m_EditorClassIdentifier: 
  label: 
  number: 0
  text: Code to the gate should be 3684. At least that's what this mongrel said.
