%YAML 1.1
%TAG !u! tag:unity3d.com,2011:
--- !u!114 &11400000
MonoBehaviour:
  m_ObjectHideFlags: 0
  m_CorrespondingSourceObject: {fileID: 0}
  m_PrefabInstance: {fileID: 0}
  m_PrefabAsset: {fileID: 0}
  m_GameObject: {fileID: 0}
  m_Enabled: 1
  m_EditorHideFlags: 0
  m_Script: {fileID: 11500000, guid: c0bf73f6c00a1f849b095d107091f622, type: 3}
  m_Name: CrateNote
  m_EditorClassIdentifier: 
  name: CrateNote
  icon: {fileID: 21300000, guid: 384cabaa18a3e044ca2207515ce34397, type: 3}
  pages:
  - {fileID: 11400000, guid: 22a366b4c81dd9444927857cd658aa49, type: 2}
